%YAML 1.1
%TAG !u! tag:unity3d.com,2011:
--- !u!319 &31900000
AvatarMask:
  m_ObjectHideFlags: 0
  m_PrefabParentObject: {fileID: 0}
  m_PrefabInternal: {fileID: 0}
  m_Name: Right Arm Mask
  m_Mask: 00000000000000000000000000000000000000000000000001000000000000000100000000000000000000000000000001000000
  m_Elements: []
